[
    {
        "name": "Africa A 400",
        "price": "2000",
        "images": "https://diplomus.kiev.ua/images/infrared-heaters/Africa/A/400/beg/africa-a-400-beige.jpg",
        "article": "00001",
        "color": "бежевий"
    },
    {
        "name": "Africa A 500",
        "price": "4350",
        "images": "https://diplomus.kiev.ua/images/infrared-heaters/Africa/A/500/beg/africa-a-500-beige.jpg",
        "article": "00002",
        "color": "бежевий"
    },
    {
        "name": "Africa ЛЕО  T520P",
        "price": "9450",
        "images": "https://diplomus.kiev.ua/images/infrared-heaters/Africa/Leo/T520P/beg/africa-leo-t520p-beige.jpg",
        "article": "00003",
        "color": "бежевий"
    },
    {
        "name": "Africa КОЛІБРІ A1-250",
        "price": "4770",
        "images": "https://diplomus.kiev.ua/images/infrared-heaters/Africa/Kolibry/A1/beg/africa-kolibri-a1-250-beige.jpg",
        "article": "00004",
        "color": "бежевий"
    },
    {
        "name": "Stinex Ceramic 350 Standart plus",
        "price": "2530",
        "images": "https://diplomus.kiev.ua/images/infrared-heaters/Stinex/ceramic/standart_plus/350/white/stinex-ceramic-350-standart-plus-white.jpg",
        "article": "00005",
        "color": "білий"
    },
    {
        "name": "Stinex Ceramic 500 Standart plus",
        "price": "3200",
        "images": "https://diplomus.kiev.ua/images/infrared-heaters/Stinex/ceramic/standart_plus/500/white/stinex-ceramic-500-standart-plus-white.jpg",
        "article": "00006",
        "color": "білий"
    },
    {
        "name": "Stinex Ceramic Towel 500 Standart plus",
        "price": "4540",
        "images": "https://diplomus.kiev.ua/images/infrared-heaters/Stinex/ceramic/standart_plus/500towel/white/stinex-ceramic-towel-500-standart-plus-white.jpg",
        "article": "00007",
        "color": "білий"
    },
    {
        "name": "Stinex Combie EMH-T 350",
        "price": "2530",
        "images": "https://diplomus.kiev.ua/images/infrared-heaters/Stinex/combie/EMHT/350/stinex-combie-emh-t-350-white.jpg",
        "article": "00008",
        "color": "білий"
    },
    {
        "name": "EcoTeplo AIR 350 ME",
        "price": "2400",
        "images": "https://diplomus.kiev.ua/images/infrared-heaters/EcoTeplo/AIR/ME/350/white/Ecoteplo-AIR-350-ME-white.jpg",
        "article": "00009",
        "color": "біле дерево"
    },
    {
        "name": "EcoTeplo AIR 1000 EL",
        "price": "5000",
        "images": "https://diplomus.kiev.ua/images/infrared-heaters/EcoTeplo/AIR/EL/1000/white/ecoteplo-air-1000-el-white.jpg",
        "article": "000010",
        "color": "білий"
    }
]